%YAML 1.1
%TAG !u! tag:unity3d.com,2011:
--- !u!1045 &1
EditorBuildSettings:
  m_ObjectHideFlags: 0
  serializedVersion: 2
  m_Scenes:
  - enabled: 1
    path: Assets/Scenes/LandingScene.unity
    guid: 056fc7a04497f124c921a1fe2c9fb085
  - enabled: 1
    path: Assets/Scenes/LevelScene.unity
    guid: 0087e99e36643474ea6a83700da59dde
  - enabled: 1
    path: Assets/Scenes/RecordScene.unity
    guid: 534856044636d004cb912b3cca4cfc49
  - enabled: 1
    path: Assets/Scenes/GameClear.unity
    guid: cb09e2fd7fe24a342a088535fe3765d1
  - enabled: 1
    path: Assets/Scenes/GameOver.unity
    guid: 6ab9524b89259394ca52f47ea8f53520
  - enabled: 1
    path: Assets/Scenes/SampleScene.unity
    guid: 1a4e22b64fe794b48bd365d993b01970
  - enabled: 1
    path: Assets/Scenes/Tutorial.unity
    guid: 1228a283a2f54594db42473666a273ca
  - enabled: 1
    path: Assets/Scenes/Level1.unity
    guid: 8ecb8dae46b70544baec31750403f7bb
  - enabled: 1
    path: Assets/Scenes/Level2.unity
    guid: d69da9b3125b36e4db88515989bc3d4f
  - enabled: 1
    path: Assets/Scenes/Level3.unity
    guid: a7d17f02e118f68469d31c73a618ce00
  m_configObjects: {}
